<?xml version="1.0" encoding="UTF-8" standalone="no"?>
<!-- Generator: Adobe Illustrator 16.0.0, SVG Export Plug-In . SVG Version: 6.00 Build 0)  -->

<svg
   xmlns:dc="http://purl.org/dc/elements/1.1/"
   xmlns:cc="http://creativecommons.org/ns#"
   xmlns:rdf="http://www.w3.org/1999/02/22-rdf-syntax-ns#"
   xmlns:svg="http://www.w3.org/2000/svg"
   xmlns="http://www.w3.org/2000/svg"
   xmlns:sodipodi="http://sodipodi.sourceforge.net/DTD/sodipodi-0.dtd"
   xmlns:inkscape="http://www.inkscape.org/namespaces/inkscape"
   version="1.1"
   id="Layer_1"
   x="0px"
   y="0px"
   width="512px"
   height="512px"
   viewBox="0 0 512 512"
   enable-background="new 0 0 512 512"
   xml:space="preserve"
   inkscape:version="0.92.2 (5c3e80d, 2017-08-06)"
   sodipodi:docname="app.svg"><metadata
     id="metadata9"><rdf:RDF><cc:Work
         rdf:about=""><dc:format>image/svg+xml</dc:format><dc:type
           rdf:resource="http://purl.org/dc/dcmitype/StillImage" /></cc:Work></rdf:RDF></metadata><defs
     id="defs7" /><sodipodi:namedview
     pagecolor="#ffffff"
     bordercolor="#666666"
     borderopacity="1"
     objecttolerance="10"
     gridtolerance="10"
     guidetolerance="10"
     inkscape:pageopacity="0"
     inkscape:pageshadow="2"
     inkscape:window-width="1920"
     inkscape:window-height="1080"
     id="namedview5"
     showgrid="false"
     inkscape:zoom="0.92187498"
     inkscape:cx="223.93813"
     inkscape:cy="237.26846"
     inkscape:window-x="0"
     inkscape:window-y="0"
     inkscape:window-maximized="1"
     inkscape:current-layer="Layer_1" /><path
     style="opacity:1;fill:#ffffff;fill-opacity:1;stroke:#000000;stroke-width:0.87800002;stroke-linecap:butt;stroke-miterlimit:4;stroke-dasharray:none;stroke-dashoffset:0;stroke-opacity:1"
     d="M 247.83198,510.33333 C 229.48326,501.16437 189.78794,455.63889 153.70886,402.38608 108.01298,334.93886 76.549712,269.84736 66.477887,221.92185 63.391705,207.23664 62.619696,186.45666 64.568628,170.53077 69.849182,127.38022 88.832182,88.37414 119.45451,57.751809 c 22.01361,-22.013606 47.49015,-37.669165 76.60737,-47.075904 20.07226,-6.4846304 36.32789,-8.9609994 58.799,-8.9573904 15.82056,0.0025 25.20235,0.878693 38.58779,3.603655 29.27974,5.9606704 57.25814,19.1024524 81.56571,38.3123624 7.16255,5.660455 23.62029,22.091106 29.14775,29.099768 27.68995,35.11007 42.05754,75.5204 42.11426,118.45064 0.0195,14.72113 -1.17042,24.05266 -5.0755,39.80466 -11.10768,44.80527 -40.59037,104.78432 -81.74458,166.29964 -43.60715,65.18186 -89.02708,115.3374 -104.44742,115.3374 -1.42318,0 -4.65279,-1.03199 -7.17691,-2.29331 z m 17.32829,-189.48636 c 45.4822,-4.02553 84.13475,-30.21804 104.50975,-70.81996 14.09646,-28.09048 17.18704,-60.24088 8.76327,-91.16176 -12.35905,-45.36594 -50.51518,-81.40818 -96.45838,-91.114483 -22.97888,-4.854691 -45.10067,-3.602599 -67.45932,3.818196 -67.1219,22.277627 -103.60883,95.090687 -81.20728,162.056637 14.25716,42.61957 49.88481,74.72409 93.7963,84.52101 14.09633,3.14498 24.60623,3.89074 38.05566,2.70036 z"
     id="path3333"
     inkscape:connector-curvature="0" /><path
     sodipodi:type="star"
     id="path14"
     sodipodi:sides="3"
     sodipodi:cx="249.2851"
     sodipodi:cy="188.31288"
     sodipodi:r1="69.032799"
     sodipodi:r2="34.747864"
     sodipodi:arg1="1.0600815e-08"
     sodipodi:arg2="1.0471976"
     inkscape:flatsided="false"
     inkscape:rounded="0"
     inkscape:randomized="0"
     d="m 318.31789,188.31288 -51.65886,30.09254 -51.89033,29.69162 -0.23147,-59.78416 0.23147,-59.78416 51.89033,29.69163 z"
     transform="matrix(1.1672367,0,0,1.3628874,-42.386967,-67.251621)"
     style="fill:#ffffff;fill-opacity:1;stroke:#000000;stroke-opacity:1;stroke-width:0.99978276;stroke-miterlimit:4;stroke-dasharray:none;stroke-dashoffset:0" /></svg>